EESchema Schematic File Version 2
LIBS:power
LIBS:device
LIBS:transistors
LIBS:conn
LIBS:linear
LIBS:regul
LIBS:74xx
LIBS:cmos4000
LIBS:adc-dac
LIBS:memory
LIBS:xilinx
LIBS:special
LIBS:microcontrollers
LIBS:dsp
LIBS:microchip
LIBS:analog_switches
LIBS:motorola
LIBS:texas
LIBS:intel
LIBS:audio
LIBS:interface
LIBS:digital-audio
LIBS:philips
LIBS:display
LIBS:cypress
LIBS:siliconi
LIBS:opto
LIBS:atmel
LIBS:contrib
LIBS:valves
LIBS:AMS1117
LIBS:converterboard-cache
EELAYER 27 0
EELAYER END
$Descr A4 11693 8268
encoding utf-8
Sheet 1 1
Title ""
Date "26 jul 2015"
Rev ""
Comp ""
Comment1 ""
Comment2 ""
Comment3 ""
Comment4 ""
$EndDescr
$Comp
L AMS1117 U1
U 1 1 55B154D1
P 4800 2600
F 0 "U1" H 4800 2500 50  0000 C CNN
F 1 "AMS1117" H 4800 2700 50  0000 C CNN
F 2 "" H 4800 2600 60  0000 C CNN
F 3 "" H 4800 2600 60  0000 C CNN
	1    4800 2600
	1    0    0    -1  
$EndComp
Wire Wire Line
	2250 2600 4000 2600
Wire Wire Line
	4800 3100 4800 3900
Wire Wire Line
	3650 2600 3650 4800
Wire Wire Line
	3650 4800 9900 4800
Connection ~ 3650 2600
$Comp
L MOSFET_N Q1
U 1 1 55B15672
P 7650 3150
F 0 "Q1" H 7660 3320 60  0000 R CNN
F 1 "2N7000" H 7660 3000 60  0000 R CNN
F 2 "~" H 7650 3150 60  0000 C CNN
F 3 "~" H 7650 3150 60  0000 C CNN
	1    7650 3150
	0    1    1    0   
$EndComp
Wire Wire Line
	7650 2600 7650 2950
Connection ~ 7650 2600
Wire Wire Line
	6750 3250 7450 3250
Wire Wire Line
	7050 3250 7050 2300
$Comp
L R R3
U 1 1 55B156CB
P 6750 2900
F 0 "R3" V 6830 2900 40  0000 C CNN
F 1 "10k" V 6757 2901 40  0000 C CNN
F 2 "~" V 6680 2900 30  0000 C CNN
F 3 "~" H 6750 2900 30  0000 C CNN
	1    6750 2900
	1    0    0    -1  
$EndComp
Wire Wire Line
	6750 2600 6750 2650
Connection ~ 6750 2600
Wire Wire Line
	6750 3250 6750 3150
Connection ~ 7050 3250
$Comp
L R R4
U 1 1 55B15730
P 8150 3900
F 0 "R4" V 8230 3900 40  0000 C CNN
F 1 "10k" V 8157 3901 40  0000 C CNN
F 2 "~" V 8080 3900 30  0000 C CNN
F 3 "~" H 8150 3900 30  0000 C CNN
	1    8150 3900
	1    0    0    -1  
$EndComp
Wire Wire Line
	8150 3650 8150 3250
Wire Wire Line
	7850 3250 8750 3250
Wire Wire Line
	8150 4800 8150 4150
Connection ~ 8150 4800
Wire Wire Line
	8750 3250 8750 4700
Connection ~ 8150 3250
Wire Wire Line
	8850 2800 8850 4600
Wire Wire Line
	8850 4600 9700 4600
Connection ~ 8850 3900
Wire Wire Line
	2050 3900 8850 3900
$Comp
L CONN_2 P1
U 1 1 55B15825
P 2150 2150
F 0 "P1" V 2100 2150 40  0000 C CNN
F 1 "POWER" V 2200 2150 40  0000 C CNN
F 2 "~" H 2150 2150 60  0000 C CNN
F 3 "~" H 2150 2150 60  0000 C CNN
	1    2150 2150
	0    -1   -1   0   
$EndComp
Wire Wire Line
	2250 2500 2250 2600
Wire Wire Line
	2050 2500 2050 3900
$Comp
L CONN_3 K2
U 1 1 55B158BC
P 9800 4150
F 0 "K2" V 9750 4150 50  0000 C CNN
F 1 "WS2812" V 9850 4150 40  0000 C CNN
F 2 "~" H 9800 4150 60  0000 C CNN
F 3 "~" H 9800 4150 60  0000 C CNN
	1    9800 4150
	0    -1   -1   0   
$EndComp
Wire Wire Line
	9700 4600 9700 4500
$Comp
L CONN_4 K1
U 1 1 55B1597E
P 9750 1700
F 0 "K1" V 9700 1700 50  0000 C CNN
F 1 "ESP8266" V 9800 1700 40  0000 C CNN
F 2 "~" H 9750 1700 60  0000 C CNN
F 3 "~" H 9750 1700 60  0000 C CNN
	1    9750 1700
	0    -1   -1   0   
$EndComp
Connection ~ 9600 2800
Connection ~ 4800 3900
$Comp
L CP1 C1
U 1 1 55B1F3E4
P 5900 3150
F 0 "C1" H 5950 3250 50  0000 L CNN
F 1 "22 uF" H 5950 3050 50  0000 L CNN
F 2 "~" H 5900 3150 60  0000 C CNN
F 3 "~" H 5900 3150 60  0000 C CNN
	1    5900 3150
	1    0    0    -1  
$EndComp
Wire Wire Line
	5900 2950 5900 2600
Connection ~ 5900 2600
Wire Wire Line
	5900 3350 5900 3900
Connection ~ 5900 3900
$Comp
L CP1 C2
U 1 1 55B1F4FF
P 7300 4350
F 0 "C2" H 7350 4450 50  0000 L CNN
F 1 "1000uF" H 7350 4250 50  0000 L CNN
F 2 "~" H 7300 4350 60  0000 C CNN
F 3 "~" H 7300 4350 60  0000 C CNN
	1    7300 4350
	-1   0    0    1   
$EndComp
Wire Wire Line
	7300 4150 7300 3900
Connection ~ 7300 3900
Wire Wire Line
	7300 4550 7300 4800
Connection ~ 7300 4800
Wire Wire Line
	9700 2050 9700 2300
Connection ~ 9700 2300
Connection ~ 9800 2600
Wire Wire Line
	7050 2300 10250 2300
$Comp
L R R1
U 1 1 55B2499D
P 9800 2350
F 0 "R1" V 9880 2350 40  0000 C CNN
F 1 "10k" V 9807 2351 40  0000 C CNN
F 2 "~" V 9730 2350 30  0000 C CNN
F 3 "~" H 9800 2350 30  0000 C CNN
	1    9800 2350
	1    0    0    -1  
$EndComp
Wire Wire Line
	9900 2050 9900 2600
Wire Wire Line
	9900 2600 5600 2600
Wire Wire Line
	9900 4800 9900 4500
Wire Wire Line
	9800 4500 9800 4700
Wire Wire Line
	8750 4700 10100 4700
Wire Wire Line
	9800 2050 9800 2100
Wire Wire Line
	9600 2050 9600 2800
Wire Wire Line
	9600 2800 8850 2800
$Comp
L GND #PWR01
U 1 1 55B4ACB7
P 2550 4050
F 0 "#PWR01" H 2550 4050 30  0001 C CNN
F 1 "GND" H 2550 3980 30  0001 C CNN
F 2 "" H 2550 4050 60  0000 C CNN
F 3 "" H 2550 4050 60  0000 C CNN
	1    2550 4050
	1    0    0    -1  
$EndComp
Wire Wire Line
	2550 4050 2550 3900
Connection ~ 2550 3900
Text Label 2950 2600 0    60   ~ 0
5V
Text GLabel 6300 2450 0    60   Input ~ 0
3V3
Wire Wire Line
	6300 2450 6450 2450
Wire Wire Line
	6450 2450 6450 2600
Connection ~ 6450 2600
Text GLabel 10100 4700 2    60   Input ~ 0
DIN
Connection ~ 9800 4700
Text GLabel 10200 2100 2    60   Input ~ 0
CH_PD
Wire Wire Line
	9800 2100 10200 2100
Connection ~ 9800 2100
Text GLabel 10250 2300 2    60   Input ~ 0
DOUT
$EndSCHEMATC
